## Interface: 80000
## Title: Gio |cff00ffffBigWigs|r
## Author: Gio
## Credit: Blazeflack, Elv, WA Discord
## Version: 1.0
## Notes: Cosas nasis del BigWigs
## RequiredDeps: BigWigs, BigWigs_Core, BigWigs_Plugins
## LoadOnDemand: 1
## LoadWith: BigWigs_Plugins
## X-eMail: xergio@gmail.com

main.lua
